{
  "shell_port": 45569,
  "iopub_port": 44873,
  "stdin_port": 38829,
  "control_port": 46799,
  "hb_port": 59357,
  "ip": "127.0.0.1",
  "key": "c409a932-56954294a3e6f89f560c1d0b",
  "transport": "tcp",
  "signature_scheme": "hmac-sha256",
  "kernel_name": ""
}